%YAML 1.1
%TAG !u! tag:unity3d.com,2011:
--- !u!74 &7400000
AnimationClip:
  m_ObjectHideFlags: 0
  m_CorrespondingSourceObject: {fileID: 0}
  m_PrefabInstance: {fileID: 0}
  m_PrefabAsset: {fileID: 0}
  m_Name: Anim
  serializedVersion: 6
  m_Legacy: 0
  m_Compressed: 0
  m_UseHighQualityCurve: 1
  m_RotationCurves: []
  m_CompressedRotationCurves: []
  m_EulerCurves: []
  m_PositionCurves: []
  m_ScaleCurves: []
  m_FloatCurves: []
  m_PPtrCurves:
  - curve:
    - time: 0
      value: {fileID: 21300000, guid: a07c6c258555b9e4bb9be0ee43f8b269, type: 3}
    - time: 0.083333336
      value: {fileID: 21300000, guid: 4495b03c363462b4b8cd3f20f46b5b86, type: 3}
    - time: 0.16666667
      value: {fileID: 21300000, guid: ef131f3830055cd4ba66c5ae6804d9ab, type: 3}
    - time: 0.25
      value: {fileID: 21300000, guid: 937a0c7796fc0f044a5ae11636d7166d, type: 3}
    - time: 0.33333334
      value: {fileID: 21300000, guid: 247e8a7e9e999d3439d50323d3c3096d, type: 3}
    - time: 0.41666666
      value: {fileID: 21300000, guid: 9193b25d7f4df654e8239fa2e485ab66, type: 3}
    - time: 0.5
      value: {fileID: 21300000, guid: 9ff940feac3d11840abb8e071a3423c0, type: 3}
    - time: 0.5833333
      value: {fileID: 21300000, guid: f27d2aa3158739d439a0f23a114871e9, type: 3}
    attribute: m_Sprite
    path: 
    classID: 212
    script: {fileID: 0}
  m_SampleRate: 12
  m_WrapMode: 0
  m_Bounds:
    m_Center: {x: 0, y: 0, z: 0}
    m_Extent: {x: 0, y: 0, z: 0}
  m_ClipBindingConstant:
    genericBindings:
    - serializedVersion: 2
      path: 0
      attribute: 0
      script: {fileID: 0}
      typeID: 212
      customType: 23
      isPPtrCurve: 1
    pptrCurveMapping:
    - {fileID: 21300000, guid: a07c6c258555b9e4bb9be0ee43f8b269, type: 3}
    - {fileID: 21300000, guid: 4495b03c363462b4b8cd3f20f46b5b86, type: 3}
    - {fileID: 21300000, guid: ef131f3830055cd4ba66c5ae6804d9ab, type: 3}
    - {fileID: 21300000, guid: 937a0c7796fc0f044a5ae11636d7166d, type: 3}
    - {fileID: 21300000, guid: 247e8a7e9e999d3439d50323d3c3096d, type: 3}
    - {fileID: 21300000, guid: 9193b25d7f4df654e8239fa2e485ab66, type: 3}
    - {fileID: 21300000, guid: 9ff940feac3d11840abb8e071a3423c0, type: 3}
    - {fileID: 21300000, guid: f27d2aa3158739d439a0f23a114871e9, type: 3}
  m_AnimationClipSettings:
    serializedVersion: 2
    m_AdditiveReferencePoseClip: {fileID: 0}
    m_AdditiveReferencePoseTime: 0
    m_StartTime: 0
    m_StopTime: 0.6666667
    m_OrientationOffsetY: 0
    m_Level: 0
    m_CycleOffset: 0
    m_HasAdditiveReferencePose: 0
    m_LoopTime: 0
    m_LoopBlend: 0
    m_LoopBlendOrientation: 0
    m_LoopBlendPositionY: 0
    m_LoopBlendPositionXZ: 0
    m_KeepOriginalOrientation: 0
    m_KeepOriginalPositionY: 1
    m_KeepOriginalPositionXZ: 0
    m_HeightFromFeet: 0
    m_Mirror: 0
  m_EditorCurves: []
  m_EulerEditorCurves: []
  m_HasGenericRootTransform: 0
  m_HasMotionFloatCurves: 0
  m_Events:
  - time: 0.6666667
    functionName: DestroyFx
    data: 
    objectReferenceParameter: {fileID: 0}
    floatParameter: 0
    intParameter: 0
    messageOptions: 0
